{"name":"Retrasar        respuesta del sistema en \u003cid\u003e segundos - No hace retraso 200","id":"automatizacion-de-api-tarea;retrasar--------respuesta-del-sistema-en-\u003cid\u003e-segundos---no-hace-retraso-200","testSteps":[{"number":1,"description":"Example: {id\u003d*, codigo\u003d200}","duration":597,"startTime":"2022-11-08T14:15:47.922-05:00[America/Bogota]","result":"SUCCESS","precondition":false,"level":0,"lineNumber":32,"children":[{"number":2,"description":"Dado que ejecuto el servicio con o sin header y body\r\n| url | path | method |\r\n| nux | /api/users?delay\u003d* | get |","duration":583,"startTime":"2022-11-08T14:15:47.932-05:00[America/Bogota]","result":"SUCCESS","precondition":false,"level":1,"children":[{"number":3,"description":"GET https://reqres.in/api/users?delay\u003d*\r","duration":0,"startTime":"2022-11-08T14:15:48.514-05:00[America/Bogota]","result":"SUCCESS","restQuery":{"method":"GET","path":"https://reqres.in/api/users?delay\u003d*\r","content":"\r","contentType":"null","requestHeaders":"Accept\u003d*/*\r","requestCookies":"\r","responseHeaders":"Date: Tue, 08 Nov 2022 19:15:48 GMT\r\nContent-Type: application/json; charset\u003dutf-8\r\nTransfer-Encoding: chunked\r\nConnection: keep-alive\r\nX-Powered-By: Express\r\nAccess-Control-Allow-Origin: *\r\nEtag: W/\"3e4-2RLXvr5wTg9YQ6aH95CkYoFNuO8\"\r\nVia: 1.1 vegur\r\nCF-Cache-Status: DYNAMIC\r\nReport-To: {\"endpoints\":[{\"url\":\"https:\\/\\/a.nel.cloudflare.com\\/report\\/v3?s\u003dYXcINtKzlpFAFIEK4J8HXBPVpdCLl%2Fo8Im1aWRbbPgpktjZtQrebcilkE6q2sXr02nNsCXX65b4GXm7EK9Ow5Cy5dA%2FUApzX3wtUZjzT0F5W9eN%2BrLIhHnKzXw%3D%3D\"}],\"group\":\"cf-nel\",\"max_age\":604800}\r\nNEL: {\"success_fraction\":0,\"report_to\":\"cf-nel\",\"max_age\":604800}\r\nServer: cloudflare\r\nCF-RAY: 7670a3b29ff06e04-LIM\r\nContent-Encoding: gzip\r","responseCookies":"\r","responseBody":"{\n    \"page\": 1,\n    \"per_page\": 6,\n    \"total\": 12,\n    \"total_pages\": 2,\n    \"data\": [\n        {\n            \"id\": 1,\n            \"email\": \"george.bluth@reqres.in\",\n            \"first_name\": \"George\",\n            \"last_name\": \"Bluth\",\n            \"avatar\": \"https://reqres.in/img/faces/1-image.jpg\"\n        },\n        {\n            \"id\": 2,\n            \"email\": \"janet.weaver@reqres.in\",\n            \"first_name\": \"Janet\",\n            \"last_name\": \"Weaver\",\n            \"avatar\": \"https://reqres.in/img/faces/2-image.jpg\"\n        },\n        {\n            \"id\": 3,\n            \"email\": \"emma.wong@reqres.in\",\n            \"first_name\": \"Emma\",\n            \"last_name\": \"Wong\",\n            \"avatar\": \"https://reqres.in/img/faces/3-image.jpg\"\n        },\n        {\n            \"id\": 4,\n            \"email\": \"eve.holt@reqres.in\",\n            \"first_name\": \"Eve\",\n            \"last_name\": \"Holt\",\n            \"avatar\": \"https://reqres.in/img/faces/4-image.jpg\"\n        },\n        {\n            \"id\": 5,\n            \"email\": \"charles.morris@reqres.in\",\n            \"first_name\": \"Charles\",\n            \"last_name\": \"Morris\",\n            \"avatar\": \"https://reqres.in/img/faces/5-image.jpg\"\n        },\n        {\n            \"id\": 6,\n            \"email\": \"tracey.ramos@reqres.in\",\n            \"first_name\": \"Tracey\",\n            \"last_name\": \"Ramos\",\n            \"avatar\": \"https://reqres.in/img/faces/6-image.jpg\"\n        }\n    ],\n    \"support\": {\n        \"url\": \"https://reqres.in/#support-heading\",\n        \"text\": \"To keep ReqRes free, contributions towards server costs are appreciated!\"\n    }\n}","statusCode":200},"precondition":false,"level":2}]},{"number":4,"description":"Entonces valido que el codigo de respuesta sea: \"200\"","duration":2,"startTime":"2022-11-08T14:15:48.516-05:00[America/Bogota]","result":"SUCCESS","precondition":false,"level":1}]},{"number":5,"description":"Example: {id\u003d-1, codigo\u003d200}","duration":658,"startTime":"2022-11-08T14:15:48.521-05:00[America/Bogota]","result":"SUCCESS","precondition":false,"level":0,"lineNumber":33,"children":[{"number":6,"description":"Dado que ejecuto el servicio con o sin header y body\r\n| url | path | method |\r\n| nux | /api/users?delay\u003d-1 | get |","duration":647,"startTime":"2022-11-08T14:15:48.529-05:00[America/Bogota]","result":"SUCCESS","precondition":false,"level":1,"children":[{"number":7,"description":"GET https://reqres.in/api/users?delay\u003d-1\r","duration":0,"startTime":"2022-11-08T14:15:49.175-05:00[America/Bogota]","result":"SUCCESS","restQuery":{"method":"GET","path":"https://reqres.in/api/users?delay\u003d-1\r","content":"\r","contentType":"null","requestHeaders":"Accept\u003d*/*\r","requestCookies":"\r","responseHeaders":"Date: Tue, 08 Nov 2022 19:15:49 GMT\r\nContent-Type: application/json; charset\u003dutf-8\r\nTransfer-Encoding: chunked\r\nConnection: keep-alive\r\nX-Powered-By: Express\r\nAccess-Control-Allow-Origin: *\r\nEtag: W/\"3e4-2RLXvr5wTg9YQ6aH95CkYoFNuO8\"\r\nVia: 1.1 vegur\r\nCF-Cache-Status: DYNAMIC\r\nReport-To: {\"endpoints\":[{\"url\":\"https:\\/\\/a.nel.cloudflare.com\\/report\\/v3?s\u003da9uTchH%2BpABvdsuvMdyp68uGJ3MzY5FORuUIHNbPc0ycdGF0udJtKLpFhTOGC%2FefdkI1dFt7YHWeK5Q66aOdDavKbx6ow8J%2BguaxWqJga9BD%2B6qHUEPVPJ4z7w%3D%3D\"}],\"group\":\"cf-nel\",\"max_age\":604800}\r\nNEL: {\"success_fraction\":0,\"report_to\":\"cf-nel\",\"max_age\":604800}\r\nServer: cloudflare\r\nCF-RAY: 7670a3b6e9766df8-LIM\r\nContent-Encoding: gzip\r","responseCookies":"\r","responseBody":"{\n    \"page\": 1,\n    \"per_page\": 6,\n    \"total\": 12,\n    \"total_pages\": 2,\n    \"data\": [\n        {\n            \"id\": 1,\n            \"email\": \"george.bluth@reqres.in\",\n            \"first_name\": \"George\",\n            \"last_name\": \"Bluth\",\n            \"avatar\": \"https://reqres.in/img/faces/1-image.jpg\"\n        },\n        {\n            \"id\": 2,\n            \"email\": \"janet.weaver@reqres.in\",\n            \"first_name\": \"Janet\",\n            \"last_name\": \"Weaver\",\n            \"avatar\": \"https://reqres.in/img/faces/2-image.jpg\"\n        },\n        {\n            \"id\": 3,\n            \"email\": \"emma.wong@reqres.in\",\n            \"first_name\": \"Emma\",\n            \"last_name\": \"Wong\",\n            \"avatar\": \"https://reqres.in/img/faces/3-image.jpg\"\n        },\n        {\n            \"id\": 4,\n            \"email\": \"eve.holt@reqres.in\",\n            \"first_name\": \"Eve\",\n            \"last_name\": \"Holt\",\n            \"avatar\": \"https://reqres.in/img/faces/4-image.jpg\"\n        },\n        {\n            \"id\": 5,\n            \"email\": \"charles.morris@reqres.in\",\n            \"first_name\": \"Charles\",\n            \"last_name\": \"Morris\",\n            \"avatar\": \"https://reqres.in/img/faces/5-image.jpg\"\n        },\n        {\n            \"id\": 6,\n            \"email\": \"tracey.ramos@reqres.in\",\n            \"first_name\": \"Tracey\",\n            \"last_name\": \"Ramos\",\n            \"avatar\": \"https://reqres.in/img/faces/6-image.jpg\"\n        }\n    ],\n    \"support\": {\n        \"url\": \"https://reqres.in/#support-heading\",\n        \"text\": \"To keep ReqRes free, contributions towards server costs are appreciated!\"\n    }\n}","statusCode":200},"precondition":false,"level":2}]},{"number":8,"description":"Entonces valido que el codigo de respuesta sea: \"200\"","duration":1,"startTime":"2022-11-08T14:15:49.177-05:00[America/Bogota]","result":"SUCCESS","precondition":false,"level":1}]},{"number":9,"description":"Example: {id\u003dasd, codigo\u003d200}","duration":566,"startTime":"2022-11-08T14:15:49.181-05:00[America/Bogota]","result":"SUCCESS","precondition":false,"level":0,"lineNumber":34,"children":[{"number":10,"description":"Dado que ejecuto el servicio con o sin header y body\r\n| url | path | method |\r\n| nux | /api/users?delay\u003dasd | get |","duration":555,"startTime":"2022-11-08T14:15:49.190-05:00[America/Bogota]","result":"SUCCESS","precondition":false,"level":1,"children":[{"number":11,"description":"GET https://reqres.in/api/users?delay\u003dasd\r","duration":1,"startTime":"2022-11-08T14:15:49.743-05:00[America/Bogota]","result":"SUCCESS","restQuery":{"method":"GET","path":"https://reqres.in/api/users?delay\u003dasd\r","content":"\r","contentType":"null","requestHeaders":"Accept\u003d*/*\r","requestCookies":"\r","responseHeaders":"Date: Tue, 08 Nov 2022 19:15:49 GMT\r\nContent-Type: application/json; charset\u003dutf-8\r\nTransfer-Encoding: chunked\r\nConnection: keep-alive\r\nX-Powered-By: Express\r\nAccess-Control-Allow-Origin: *\r\nEtag: W/\"3e4-2RLXvr5wTg9YQ6aH95CkYoFNuO8\"\r\nVia: 1.1 vegur\r\nCF-Cache-Status: DYNAMIC\r\nReport-To: {\"endpoints\":[{\"url\":\"https:\\/\\/a.nel.cloudflare.com\\/report\\/v3?s\u003dYBfFyGdmvzLzrT5WJcu2bA2VGaUqiUnEtPGtG55BmD5UMQwp6AnMtd4jiFIgVfG6bjlRCxiZf6jBKeUaeaJiiG48Klh%2B%2FiGSv4UTH%2BxJ840JGpPLoJ0pIbYu1w%3D%3D\"}],\"group\":\"cf-nel\",\"max_age\":604800}\r\nNEL: {\"success_fraction\":0,\"report_to\":\"cf-nel\",\"max_age\":604800}\r\nServer: cloudflare\r\nCF-RAY: 7670a3ba6cc26dfd-LIM\r\nContent-Encoding: gzip\r","responseCookies":"\r","responseBody":"{\n    \"page\": 1,\n    \"per_page\": 6,\n    \"total\": 12,\n    \"total_pages\": 2,\n    \"data\": [\n        {\n            \"id\": 1,\n            \"email\": \"george.bluth@reqres.in\",\n            \"first_name\": \"George\",\n            \"last_name\": \"Bluth\",\n            \"avatar\": \"https://reqres.in/img/faces/1-image.jpg\"\n        },\n        {\n            \"id\": 2,\n            \"email\": \"janet.weaver@reqres.in\",\n            \"first_name\": \"Janet\",\n            \"last_name\": \"Weaver\",\n            \"avatar\": \"https://reqres.in/img/faces/2-image.jpg\"\n        },\n        {\n            \"id\": 3,\n            \"email\": \"emma.wong@reqres.in\",\n            \"first_name\": \"Emma\",\n            \"last_name\": \"Wong\",\n            \"avatar\": \"https://reqres.in/img/faces/3-image.jpg\"\n        },\n        {\n            \"id\": 4,\n            \"email\": \"eve.holt@reqres.in\",\n            \"first_name\": \"Eve\",\n            \"last_name\": \"Holt\",\n            \"avatar\": \"https://reqres.in/img/faces/4-image.jpg\"\n        },\n        {\n            \"id\": 5,\n            \"email\": \"charles.morris@reqres.in\",\n            \"first_name\": \"Charles\",\n            \"last_name\": \"Morris\",\n            \"avatar\": \"https://reqres.in/img/faces/5-image.jpg\"\n        },\n        {\n            \"id\": 6,\n            \"email\": \"tracey.ramos@reqres.in\",\n            \"first_name\": \"Tracey\",\n            \"last_name\": \"Ramos\",\n            \"avatar\": \"https://reqres.in/img/faces/6-image.jpg\"\n        }\n    ],\n    \"support\": {\n        \"url\": \"https://reqres.in/#support-heading\",\n        \"text\": \"To keep ReqRes free, contributions towards server costs are appreciated!\"\n    }\n}","statusCode":200},"precondition":false,"level":2}]},{"number":12,"description":"Entonces valido que el codigo de respuesta sea: \"200\"","duration":0,"startTime":"2022-11-08T14:15:49.746-05:00[America/Bogota]","result":"SUCCESS","precondition":false,"level":1}]},{"number":13,"description":"Example: {id\u003d@, codigo\u003d200}","duration":603,"startTime":"2022-11-08T14:15:49.748-05:00[America/Bogota]","result":"SUCCESS","precondition":false,"level":0,"lineNumber":35,"children":[{"number":14,"description":"Dado que ejecuto el servicio con o sin header y body\r\n| url | path | method |\r\n| nux | /api/users?delay\u003d@ | get |","duration":592,"startTime":"2022-11-08T14:15:49.757-05:00[America/Bogota]","result":"SUCCESS","precondition":false,"level":1,"children":[{"number":15,"description":"GET https://reqres.in/api/users?delay\u003d%40\r","duration":0,"startTime":"2022-11-08T14:15:50.347-05:00[America/Bogota]","result":"SUCCESS","restQuery":{"method":"GET","path":"https://reqres.in/api/users?delay\u003d%40\r","content":"\r","contentType":"null","requestHeaders":"Accept\u003d*/*\r","requestCookies":"\r","responseHeaders":"Date: Tue, 08 Nov 2022 19:15:50 GMT\r\nContent-Type: application/json; charset\u003dutf-8\r\nTransfer-Encoding: chunked\r\nConnection: keep-alive\r\nX-Powered-By: Express\r\nAccess-Control-Allow-Origin: *\r\nEtag: W/\"3e4-2RLXvr5wTg9YQ6aH95CkYoFNuO8\"\r\nVia: 1.1 vegur\r\nCF-Cache-Status: DYNAMIC\r\nReport-To: {\"endpoints\":[{\"url\":\"https:\\/\\/a.nel.cloudflare.com\\/report\\/v3?s\u003d5D4%2BGS77UeqRNUd0CTJlWB8Zq6jUTUy6YvHE%2FpnEDMoyeeXW0GiAzFC0bRBqwkFn80djCkgeB34cASgthlnTggz21Ey%2FePeHS%2BX%2F2ASULOSq6aQvRZYbT4Ocbg%3D%3D\"}],\"group\":\"cf-nel\",\"max_age\":604800}\r\nNEL: {\"success_fraction\":0,\"report_to\":\"cf-nel\",\"max_age\":604800}\r\nServer: cloudflare\r\nCF-RAY: 7670a3be0bbe6dec-LIM\r\nContent-Encoding: gzip\r","responseCookies":"\r","responseBody":"{\n    \"page\": 1,\n    \"per_page\": 6,\n    \"total\": 12,\n    \"total_pages\": 2,\n    \"data\": [\n        {\n            \"id\": 1,\n            \"email\": \"george.bluth@reqres.in\",\n            \"first_name\": \"George\",\n            \"last_name\": \"Bluth\",\n            \"avatar\": \"https://reqres.in/img/faces/1-image.jpg\"\n        },\n        {\n            \"id\": 2,\n            \"email\": \"janet.weaver@reqres.in\",\n            \"first_name\": \"Janet\",\n            \"last_name\": \"Weaver\",\n            \"avatar\": \"https://reqres.in/img/faces/2-image.jpg\"\n        },\n        {\n            \"id\": 3,\n            \"email\": \"emma.wong@reqres.in\",\n            \"first_name\": \"Emma\",\n            \"last_name\": \"Wong\",\n            \"avatar\": \"https://reqres.in/img/faces/3-image.jpg\"\n        },\n        {\n            \"id\": 4,\n            \"email\": \"eve.holt@reqres.in\",\n            \"first_name\": \"Eve\",\n            \"last_name\": \"Holt\",\n            \"avatar\": \"https://reqres.in/img/faces/4-image.jpg\"\n        },\n        {\n            \"id\": 5,\n            \"email\": \"charles.morris@reqres.in\",\n            \"first_name\": \"Charles\",\n            \"last_name\": \"Morris\",\n            \"avatar\": \"https://reqres.in/img/faces/5-image.jpg\"\n        },\n        {\n            \"id\": 6,\n            \"email\": \"tracey.ramos@reqres.in\",\n            \"first_name\": \"Tracey\",\n            \"last_name\": \"Ramos\",\n            \"avatar\": \"https://reqres.in/img/faces/6-image.jpg\"\n        }\n    ],\n    \"support\": {\n        \"url\": \"https://reqres.in/#support-heading\",\n        \"text\": \"To keep ReqRes free, contributions towards server costs are appreciated!\"\n    }\n}","statusCode":200},"precondition":false,"level":2}]},{"number":16,"description":"Entonces valido que el codigo de respuesta sea: \"200\"","duration":1,"startTime":"2022-11-08T14:15:50.350-05:00[America/Bogota]","result":"SUCCESS","precondition":false,"level":1}]}],"userStory":{"id":"automatizacion-de-api-tarea","storyName":"Automatizacion de API TAREA","path":"src/test/resources/features/TareaAutomatizacionAPI.feature","narrative":"  Como un alumno de la escuela NTT Data de Testing\n  Quiero redactar y automatizar APIs\n  Para obtener valores y respuestas de la solicitudes enviadas\n  Esto me ayudará a tener posibilidades de ser parte de NTT Data","type":"feature"},"featureTag":{"name":"Features/Automatizacion de API TAREA","type":"feature","displayName":"Features/Automatizacion de API TAREA"},"title":"Retrasar        respuesta del sistema en \u003cid\u003e segundos - No hace retraso 200","tags":[{"name":"Automatizacion de API TAREA","type":"feature","displayName":"Automatizacion de API TAREA"},{"name":"TareaDeAutomatizacionAPI","type":"tag","displayName":"TareaDeAutomatizacionAPI"},{"name":"RetrasarRespuesta_Negativo","type":"tag","displayName":"RetrasarRespuesta_Negativo"}],"startTime":"2022-11-08T14:15:47.919-05:00[America/Bogota]","duration":2433,"projectKey":"","isManualTestingUpToDate":false,"dataTable":{"headers":["id","codigo"],"rows":[{"values":["*","200"],"lineNumber":32,"result":"SUCCESS"},{"values":["-1","200"],"lineNumber":33,"result":"SUCCESS"},{"values":["asd","200"],"lineNumber":34,"result":"SUCCESS"},{"values":["@","200"],"lineNumber":35,"result":"SUCCESS"}],"predefinedRows":true,"scenarioOutline":"Dado que ejecuto el servicio con o sin header y body\n\rEntonces valido que el codigo de respuesta sea: \"\u003ccodigo\u003e\"\n\r","dataSetDescriptors":[{"startRow":0,"rowCount":0,"name":""}]},"manual":false,"testSource":"Cucumber","result":"SUCCESS","scenarioOutline":"Dado que ejecuto el servicio con o sin header y body\r\n|url | path | method|\r\n|nux | /api/users?delay\u003d\u003cid\u003e | get|\r\nEntonces valido que el codigo de respuesta sea: \"\u003ccodigo\u003e\""}