{"name":"Retrasar respuesta del sistema en \u003cid\u003e segundos","id":"automatizacion-de-api-tarea;retrasar-respuesta-del-sistema-en-\u003cid\u003e-segundos","testSteps":[{"number":1,"description":"Example: {id\u003d5, codigo\u003d200}","duration":7932,"startTime":"2022-11-08T14:14:53.151-05:00[America/Bogota]","result":"SUCCESS","precondition":false,"level":0,"lineNumber":18,"children":[{"number":2,"description":"Dado que ejecuto el servicio con o sin header y body\r\n| url | path | method |\r\n| nux | /api/users?delay\u003d5 | get |","duration":7669,"startTime":"2022-11-08T14:14:53.407-05:00[America/Bogota]","result":"SUCCESS","precondition":false,"level":1,"children":[{"number":3,"description":"GET https://reqres.in/api/users?delay\u003d5\r","duration":0,"startTime":"2022-11-08T14:15:01.067-05:00[America/Bogota]","result":"SUCCESS","restQuery":{"method":"GET","path":"https://reqres.in/api/users?delay\u003d5\r","content":"\r","contentType":"null","requestHeaders":"Accept\u003d*/*\r","requestCookies":"\r","responseHeaders":"Date: Tue, 08 Nov 2022 19:15:01 GMT\r\nContent-Type: application/json; charset\u003dutf-8\r\nTransfer-Encoding: chunked\r\nConnection: keep-alive\r\nX-Powered-By: Express\r\nAccess-Control-Allow-Origin: *\r\nEtag: W/\"3e4-2RLXvr5wTg9YQ6aH95CkYoFNuO8\"\r\nVia: 1.1 vegur\r\nCF-Cache-Status: DYNAMIC\r\nReport-To: {\"endpoints\":[{\"url\":\"https:\\/\\/a.nel.cloudflare.com\\/report\\/v3?s\u003dfCjpEMiiOJekHZbZf4FtloT8sYRhPCHUQY7qTunUWaHKIaM19MATG0IOI8Po%2BoomKD1spFxB1Ug9RFc1O1mwMJA40PkUM%2FissXseSLCyv%2BodNf6xr2bn3Zhzcw%3D%3D\"}],\"group\":\"cf-nel\",\"max_age\":604800}\r\nNEL: {\"success_fraction\":0,\"report_to\":\"cf-nel\",\"max_age\":604800}\r\nServer: cloudflare\r\nCF-RAY: 7670a26a59c46df2-LIM\r\nContent-Encoding: gzip\r","responseCookies":"\r","responseBody":"{\n    \"page\": 1,\n    \"per_page\": 6,\n    \"total\": 12,\n    \"total_pages\": 2,\n    \"data\": [\n        {\n            \"id\": 1,\n            \"email\": \"george.bluth@reqres.in\",\n            \"first_name\": \"George\",\n            \"last_name\": \"Bluth\",\n            \"avatar\": \"https://reqres.in/img/faces/1-image.jpg\"\n        },\n        {\n            \"id\": 2,\n            \"email\": \"janet.weaver@reqres.in\",\n            \"first_name\": \"Janet\",\n            \"last_name\": \"Weaver\",\n            \"avatar\": \"https://reqres.in/img/faces/2-image.jpg\"\n        },\n        {\n            \"id\": 3,\n            \"email\": \"emma.wong@reqres.in\",\n            \"first_name\": \"Emma\",\n            \"last_name\": \"Wong\",\n            \"avatar\": \"https://reqres.in/img/faces/3-image.jpg\"\n        },\n        {\n            \"id\": 4,\n            \"email\": \"eve.holt@reqres.in\",\n            \"first_name\": \"Eve\",\n            \"last_name\": \"Holt\",\n            \"avatar\": \"https://reqres.in/img/faces/4-image.jpg\"\n        },\n        {\n            \"id\": 5,\n            \"email\": \"charles.morris@reqres.in\",\n            \"first_name\": \"Charles\",\n            \"last_name\": \"Morris\",\n            \"avatar\": \"https://reqres.in/img/faces/5-image.jpg\"\n        },\n        {\n            \"id\": 6,\n            \"email\": \"tracey.ramos@reqres.in\",\n            \"first_name\": \"Tracey\",\n            \"last_name\": \"Ramos\",\n            \"avatar\": \"https://reqres.in/img/faces/6-image.jpg\"\n        }\n    ],\n    \"support\": {\n        \"url\": \"https://reqres.in/#support-heading\",\n        \"text\": \"To keep ReqRes free, contributions towards server costs are appreciated!\"\n    }\n}","statusCode":200},"precondition":false,"level":2}]},{"number":4,"description":"Entonces valido que el codigo de respuesta sea: \"200\"","duration":5,"startTime":"2022-11-08T14:15:01.077-05:00[America/Bogota]","result":"SUCCESS","precondition":false,"level":1}]},{"number":5,"description":"Example: {id\u003d10, codigo\u003d200}","duration":10611,"startTime":"2022-11-08T14:15:01.090-05:00[America/Bogota]","result":"SUCCESS","precondition":false,"level":0,"lineNumber":19,"children":[{"number":6,"description":"Dado que ejecuto el servicio con o sin header y body\r\n| url | path | method |\r\n| nux | /api/users?delay\u003d10 | get |","duration":10596,"startTime":"2022-11-08T14:15:01.103-05:00[America/Bogota]","result":"SUCCESS","precondition":false,"level":1,"children":[{"number":7,"description":"GET https://reqres.in/api/users?delay\u003d10\r","duration":0,"startTime":"2022-11-08T14:15:11.697-05:00[America/Bogota]","result":"SUCCESS","restQuery":{"method":"GET","path":"https://reqres.in/api/users?delay\u003d10\r","content":"\r","contentType":"null","requestHeaders":"Accept\u003d*/*\r","requestCookies":"\r","responseHeaders":"Date: Tue, 08 Nov 2022 19:15:11 GMT\r\nContent-Type: application/json; charset\u003dutf-8\r\nTransfer-Encoding: chunked\r\nConnection: keep-alive\r\nX-Powered-By: Express\r\nAccess-Control-Allow-Origin: *\r\nEtag: W/\"3e4-2RLXvr5wTg9YQ6aH95CkYoFNuO8\"\r\nVia: 1.1 vegur\r\nCF-Cache-Status: DYNAMIC\r\nReport-To: {\"endpoints\":[{\"url\":\"https:\\/\\/a.nel.cloudflare.com\\/report\\/v3?s\u003dtS8tBdbiv%2BZ5EARKRrUt%2F95LKRX3JCHPmWcdnl21lmJqyA67NL1hWgW17sow1Xx71xvr%2BvrmMBPjygdcHYvkUJ6I6Miw5yqLBeRQ2Vz7fbeENjfspye8mZWuBQ%3D%3D\"}],\"group\":\"cf-nel\",\"max_age\":604800}\r\nNEL: {\"success_fraction\":0,\"report_to\":\"cf-nel\",\"max_age\":604800}\r\nServer: cloudflare\r\nCF-RAY: 7670a28e0a796df7-LIM\r\nContent-Encoding: gzip\r","responseCookies":"\r","responseBody":"{\n    \"page\": 1,\n    \"per_page\": 6,\n    \"total\": 12,\n    \"total_pages\": 2,\n    \"data\": [\n        {\n            \"id\": 1,\n            \"email\": \"george.bluth@reqres.in\",\n            \"first_name\": \"George\",\n            \"last_name\": \"Bluth\",\n            \"avatar\": \"https://reqres.in/img/faces/1-image.jpg\"\n        },\n        {\n            \"id\": 2,\n            \"email\": \"janet.weaver@reqres.in\",\n            \"first_name\": \"Janet\",\n            \"last_name\": \"Weaver\",\n            \"avatar\": \"https://reqres.in/img/faces/2-image.jpg\"\n        },\n        {\n            \"id\": 3,\n            \"email\": \"emma.wong@reqres.in\",\n            \"first_name\": \"Emma\",\n            \"last_name\": \"Wong\",\n            \"avatar\": \"https://reqres.in/img/faces/3-image.jpg\"\n        },\n        {\n            \"id\": 4,\n            \"email\": \"eve.holt@reqres.in\",\n            \"first_name\": \"Eve\",\n            \"last_name\": \"Holt\",\n            \"avatar\": \"https://reqres.in/img/faces/4-image.jpg\"\n        },\n        {\n            \"id\": 5,\n            \"email\": \"charles.morris@reqres.in\",\n            \"first_name\": \"Charles\",\n            \"last_name\": \"Morris\",\n            \"avatar\": \"https://reqres.in/img/faces/5-image.jpg\"\n        },\n        {\n            \"id\": 6,\n            \"email\": \"tracey.ramos@reqres.in\",\n            \"first_name\": \"Tracey\",\n            \"last_name\": \"Ramos\",\n            \"avatar\": \"https://reqres.in/img/faces/6-image.jpg\"\n        }\n    ],\n    \"support\": {\n        \"url\": \"https://reqres.in/#support-heading\",\n        \"text\": \"To keep ReqRes free, contributions towards server costs are appreciated!\"\n    }\n}","statusCode":200},"precondition":false,"level":2}]},{"number":8,"description":"Entonces valido que el codigo de respuesta sea: \"200\"","duration":1,"startTime":"2022-11-08T14:15:11.700-05:00[America/Bogota]","result":"SUCCESS","precondition":false,"level":1}]},{"number":9,"description":"Example: {id\u003d15, codigo\u003d200}","duration":15568,"startTime":"2022-11-08T14:15:11.704-05:00[America/Bogota]","result":"SUCCESS","precondition":false,"level":0,"lineNumber":20,"children":[{"number":10,"description":"Dado que ejecuto el servicio con o sin header y body\r\n| url | path | method |\r\n| nux | /api/users?delay\u003d15 | get |","duration":15553,"startTime":"2022-11-08T14:15:11.715-05:00[America/Bogota]","result":"SUCCESS","precondition":false,"level":1,"children":[{"number":11,"description":"GET https://reqres.in/api/users?delay\u003d15\r","duration":0,"startTime":"2022-11-08T14:15:27.265-05:00[America/Bogota]","result":"SUCCESS","restQuery":{"method":"GET","path":"https://reqres.in/api/users?delay\u003d15\r","content":"\r","contentType":"null","requestHeaders":"Accept\u003d*/*\r","requestCookies":"\r","responseHeaders":"Date: Tue, 08 Nov 2022 19:15:27 GMT\r\nContent-Type: application/json; charset\u003dutf-8\r\nTransfer-Encoding: chunked\r\nConnection: keep-alive\r\nX-Powered-By: Express\r\nAccess-Control-Allow-Origin: *\r\nEtag: W/\"3e4-2RLXvr5wTg9YQ6aH95CkYoFNuO8\"\r\nVia: 1.1 vegur\r\nCF-Cache-Status: DYNAMIC\r\nReport-To: {\"endpoints\":[{\"url\":\"https:\\/\\/a.nel.cloudflare.com\\/report\\/v3?s\u003dAb%2FMOpzbKlQ%2BCXk16Zgwe%2BrUi%2F%2B%2Ft3vw0M9Cu9yFw1dDKOBvpxD6Gcn11IDhtQv0b2L3eXQu3Zesj4xTB%2FG2l2MduXJobhqMPCznhUW6rF0E8Ni5kI8L8lFKjQ%3D%3D\"}],\"group\":\"cf-nel\",\"max_age\":604800}\r\nNEL: {\"success_fraction\":0,\"report_to\":\"cf-nel\",\"max_age\":604800}\r\nServer: cloudflare\r\nCF-RAY: 7670a2d02c986e01-LIM\r\nContent-Encoding: gzip\r","responseCookies":"\r","responseBody":"{\n    \"page\": 1,\n    \"per_page\": 6,\n    \"total\": 12,\n    \"total_pages\": 2,\n    \"data\": [\n        {\n            \"id\": 1,\n            \"email\": \"george.bluth@reqres.in\",\n            \"first_name\": \"George\",\n            \"last_name\": \"Bluth\",\n            \"avatar\": \"https://reqres.in/img/faces/1-image.jpg\"\n        },\n        {\n            \"id\": 2,\n            \"email\": \"janet.weaver@reqres.in\",\n            \"first_name\": \"Janet\",\n            \"last_name\": \"Weaver\",\n            \"avatar\": \"https://reqres.in/img/faces/2-image.jpg\"\n        },\n        {\n            \"id\": 3,\n            \"email\": \"emma.wong@reqres.in\",\n            \"first_name\": \"Emma\",\n            \"last_name\": \"Wong\",\n            \"avatar\": \"https://reqres.in/img/faces/3-image.jpg\"\n        },\n        {\n            \"id\": 4,\n            \"email\": \"eve.holt@reqres.in\",\n            \"first_name\": \"Eve\",\n            \"last_name\": \"Holt\",\n            \"avatar\": \"https://reqres.in/img/faces/4-image.jpg\"\n        },\n        {\n            \"id\": 5,\n            \"email\": \"charles.morris@reqres.in\",\n            \"first_name\": \"Charles\",\n            \"last_name\": \"Morris\",\n            \"avatar\": \"https://reqres.in/img/faces/5-image.jpg\"\n        },\n        {\n            \"id\": 6,\n            \"email\": \"tracey.ramos@reqres.in\",\n            \"first_name\": \"Tracey\",\n            \"last_name\": \"Ramos\",\n            \"avatar\": \"https://reqres.in/img/faces/6-image.jpg\"\n        }\n    ],\n    \"support\": {\n        \"url\": \"https://reqres.in/#support-heading\",\n        \"text\": \"To keep ReqRes free, contributions towards server costs are appreciated!\"\n    }\n}","statusCode":200},"precondition":false,"level":2}]},{"number":12,"description":"Entonces valido que el codigo de respuesta sea: \"200\"","duration":1,"startTime":"2022-11-08T14:15:27.270-05:00[America/Bogota]","result":"SUCCESS","precondition":false,"level":1}]},{"number":13,"description":"Example: {id\u003d20, codigo\u003d200}","duration":20643,"startTime":"2022-11-08T14:15:27.274-05:00[America/Bogota]","result":"SUCCESS","precondition":false,"level":0,"lineNumber":21,"children":[{"number":14,"description":"Dado que ejecuto el servicio con o sin header y body\r\n| url | path | method |\r\n| nux | /api/users?delay\u003d20 | get |","duration":20630,"startTime":"2022-11-08T14:15:27.284-05:00[America/Bogota]","result":"SUCCESS","precondition":false,"level":1,"children":[{"number":15,"description":"GET https://reqres.in/api/users?delay\u003d20\r","duration":0,"startTime":"2022-11-08T14:15:47.912-05:00[America/Bogota]","result":"SUCCESS","restQuery":{"method":"GET","path":"https://reqres.in/api/users?delay\u003d20\r","content":"\r","contentType":"null","requestHeaders":"Accept\u003d*/*\r","requestCookies":"\r","responseHeaders":"Date: Tue, 08 Nov 2022 19:15:48 GMT\r\nContent-Type: application/json; charset\u003dutf-8\r\nTransfer-Encoding: chunked\r\nConnection: keep-alive\r\nX-Powered-By: Express\r\nAccess-Control-Allow-Origin: *\r\nEtag: W/\"3e4-2RLXvr5wTg9YQ6aH95CkYoFNuO8\"\r\nVia: 1.1 vegur\r\nCF-Cache-Status: DYNAMIC\r\nReport-To: {\"endpoints\":[{\"url\":\"https:\\/\\/a.nel.cloudflare.com\\/report\\/v3?s\u003dv9%2Bo4CR%2BKqH4ugf2xCqMexFPtwuqUQjJbYc%2Flptaed4wQo8aLgsNql0ipuEL2eDiA9wLoLgbZeB803yeiePqbQ2W0C8zJt7zGaX4kTlh7BeNlsVBhVa5K6OSLA%3D%3D\"}],\"group\":\"cf-nel\",\"max_age\":604800}\r\nNEL: {\"success_fraction\":0,\"report_to\":\"cf-nel\",\"max_age\":604800}\r\nServer: cloudflare\r\nCF-RAY: 7670a3317d746e04-LIM\r\nContent-Encoding: gzip\r","responseCookies":"\r","responseBody":"{\n    \"page\": 1,\n    \"per_page\": 6,\n    \"total\": 12,\n    \"total_pages\": 2,\n    \"data\": [\n        {\n            \"id\": 1,\n            \"email\": \"george.bluth@reqres.in\",\n            \"first_name\": \"George\",\n            \"last_name\": \"Bluth\",\n            \"avatar\": \"https://reqres.in/img/faces/1-image.jpg\"\n        },\n        {\n            \"id\": 2,\n            \"email\": \"janet.weaver@reqres.in\",\n            \"first_name\": \"Janet\",\n            \"last_name\": \"Weaver\",\n            \"avatar\": \"https://reqres.in/img/faces/2-image.jpg\"\n        },\n        {\n            \"id\": 3,\n            \"email\": \"emma.wong@reqres.in\",\n            \"first_name\": \"Emma\",\n            \"last_name\": \"Wong\",\n            \"avatar\": \"https://reqres.in/img/faces/3-image.jpg\"\n        },\n        {\n            \"id\": 4,\n            \"email\": \"eve.holt@reqres.in\",\n            \"first_name\": \"Eve\",\n            \"last_name\": \"Holt\",\n            \"avatar\": \"https://reqres.in/img/faces/4-image.jpg\"\n        },\n        {\n            \"id\": 5,\n            \"email\": \"charles.morris@reqres.in\",\n            \"first_name\": \"Charles\",\n            \"last_name\": \"Morris\",\n            \"avatar\": \"https://reqres.in/img/faces/5-image.jpg\"\n        },\n        {\n            \"id\": 6,\n            \"email\": \"tracey.ramos@reqres.in\",\n            \"first_name\": \"Tracey\",\n            \"last_name\": \"Ramos\",\n            \"avatar\": \"https://reqres.in/img/faces/6-image.jpg\"\n        }\n    ],\n    \"support\": {\n        \"url\": \"https://reqres.in/#support-heading\",\n        \"text\": \"To keep ReqRes free, contributions towards server costs are appreciated!\"\n    }\n}","statusCode":200},"precondition":false,"level":2}]},{"number":16,"description":"Entonces valido que el codigo de respuesta sea: \"200\"","duration":1,"startTime":"2022-11-08T14:15:47.915-05:00[America/Bogota]","result":"SUCCESS","precondition":false,"level":1}]}],"userStory":{"id":"automatizacion-de-api-tarea","storyName":"Automatizacion de API TAREA","path":"src/test/resources/features/TareaAutomatizacionAPI.feature","narrative":"  Como un alumno de la escuela NTT Data de Testing\n  Quiero redactar y automatizar APIs\n  Para obtener valores y respuestas de la solicitudes enviadas\n  Esto me ayudará a tener posibilidades de ser parte de NTT Data","type":"feature"},"featureTag":{"name":"Features/Automatizacion de API TAREA","type":"feature","displayName":"Features/Automatizacion de API TAREA"},"title":"Retrasar respuesta del sistema en \u003cid\u003e segundos","tags":[{"name":"Automatizacion de API TAREA","type":"feature","displayName":"Automatizacion de API TAREA"},{"name":"TareaDeAutomatizacionAPI","type":"tag","displayName":"TareaDeAutomatizacionAPI"},{"name":"RetrasarRespuesta_Positivo","type":"tag","displayName":"RetrasarRespuesta_Positivo"}],"startTime":"2022-11-08T14:14:53.046-05:00[America/Bogota]","duration":54871,"projectKey":"","isManualTestingUpToDate":false,"dataTable":{"headers":["id","codigo"],"rows":[{"values":["5","200"],"lineNumber":18,"result":"SUCCESS"},{"values":["10","200"],"lineNumber":19,"result":"SUCCESS"},{"values":["15","200"],"lineNumber":20,"result":"SUCCESS"},{"values":["20","200"],"lineNumber":21,"result":"SUCCESS"}],"predefinedRows":true,"scenarioOutline":"Dado que ejecuto el servicio con o sin header y body\n\rEntonces valido que el codigo de respuesta sea: \"\u003ccodigo\u003e\"\n\r","dataSetDescriptors":[{"startRow":0,"rowCount":0,"name":""}]},"manual":false,"testSource":"Cucumber","result":"SUCCESS","scenarioOutline":"Dado que ejecuto el servicio con o sin header y body\r\n|url | path | method|\r\n|nux | /api/users?delay\u003d\u003cid\u003e | get|\r\nEntonces valido que el codigo de respuesta sea: \"\u003ccodigo\u003e\""}