{"name":"Retrasar respuesta del sistema en \u003cid\u003e segundos - No hace retraso 200","id":"automatizacion-de-api-tarea;retrasar-respuesta-del-sistema-en-\u003cid\u003e-segundos---no-hace-retraso-200","testSteps":[{"number":1,"description":"Example: {id\u003d*, codigo\u003d200}","duration":807,"startTime":"2022-06-13T16:46:53.592-05:00[America/Bogota]","result":"SUCCESS","precondition":false,"level":0,"lineNumber":32,"children":[{"number":2,"description":"Dado que ejecuto el servicio con o sin header y body\r\n| url | path | method |\r\n| nux | /api/users?delay\u003d* | get |","duration":797,"startTime":"2022-06-13T16:46:53.600-05:00[America/Bogota]","result":"SUCCESS","precondition":false,"level":1,"children":[{"number":3,"description":"GET https://reqres.in/api/users?delay\u003d*\r","duration":0,"startTime":"2022-06-13T16:46:54.396-05:00[America/Bogota]","result":"SUCCESS","restQuery":{"method":"GET","path":"https://reqres.in/api/users?delay\u003d*\r","content":"\r","contentType":"null","requestHeaders":"Accept\u003d*/*\r","requestCookies":"\r","responseHeaders":"Date: Mon, 13 Jun 2022 21:46:53 GMT\r\nContent-Type: application/json; charset\u003dutf-8\r\nTransfer-Encoding: chunked\r\nConnection: keep-alive\r\nX-Powered-By: Express\r\nAccess-Control-Allow-Origin: *\r\nEtag: W/\"3e4-2RLXvr5wTg9YQ6aH95CkYoFNuO8\"\r\nVia: 1.1 vegur\r\nCF-Cache-Status: DYNAMIC\r\nExpect-CT: max-age\u003d604800, report-uri\u003d\"https://report-uri.cloudflare.com/cdn-cgi/beacon/expect-ct\"\r\nReport-To: {\"endpoints\":[{\"url\":\"https:\\/\\/a.nel.cloudflare.com\\/report\\/v3?s\u003dS723nHAsZ8gKsq7sHXAY0yf3hhtm%2BmHx46zFCV012z8bOnqpgjTg0DPw738BA4WS08BP0RTPX%2FoUd0gvhLWjxiGhWVe1UKudxEnTlTuvnYM7cBUgMCbdBXGYNw%3D%3D\"}],\"group\":\"cf-nel\",\"max_age\":604800}\r\nNEL: {\"success_fraction\":0,\"report_to\":\"cf-nel\",\"max_age\":604800}\r\nServer: cloudflare\r\nCF-RAY: 71ae05804b5b6df1-LIM\r\nContent-Encoding: gzip\r","responseCookies":"\r","responseBody":"{\n    \"page\": 1,\n    \"per_page\": 6,\n    \"total\": 12,\n    \"total_pages\": 2,\n    \"data\": [\n        {\n            \"id\": 1,\n            \"email\": \"george.bluth@reqres.in\",\n            \"first_name\": \"George\",\n            \"last_name\": \"Bluth\",\n            \"avatar\": \"https://reqres.in/img/faces/1-image.jpg\"\n        },\n        {\n            \"id\": 2,\n            \"email\": \"janet.weaver@reqres.in\",\n            \"first_name\": \"Janet\",\n            \"last_name\": \"Weaver\",\n            \"avatar\": \"https://reqres.in/img/faces/2-image.jpg\"\n        },\n        {\n            \"id\": 3,\n            \"email\": \"emma.wong@reqres.in\",\n            \"first_name\": \"Emma\",\n            \"last_name\": \"Wong\",\n            \"avatar\": \"https://reqres.in/img/faces/3-image.jpg\"\n        },\n        {\n            \"id\": 4,\n            \"email\": \"eve.holt@reqres.in\",\n            \"first_name\": \"Eve\",\n            \"last_name\": \"Holt\",\n            \"avatar\": \"https://reqres.in/img/faces/4-image.jpg\"\n        },\n        {\n            \"id\": 5,\n            \"email\": \"charles.morris@reqres.in\",\n            \"first_name\": \"Charles\",\n            \"last_name\": \"Morris\",\n            \"avatar\": \"https://reqres.in/img/faces/5-image.jpg\"\n        },\n        {\n            \"id\": 6,\n            \"email\": \"tracey.ramos@reqres.in\",\n            \"first_name\": \"Tracey\",\n            \"last_name\": \"Ramos\",\n            \"avatar\": \"https://reqres.in/img/faces/6-image.jpg\"\n        }\n    ],\n    \"support\": {\n        \"url\": \"https://reqres.in/#support-heading\",\n        \"text\": \"To keep ReqRes free, contributions towards server costs are appreciated!\"\n    }\n}","statusCode":200},"precondition":false,"level":2}]},{"number":4,"description":"Entonces valido que el codigo de respuesta sea: \"200\"","duration":1,"startTime":"2022-06-13T16:46:54.398-05:00[America/Bogota]","result":"SUCCESS","precondition":false,"level":1}]},{"number":5,"description":"Example: {id\u003d-1, codigo\u003d200}","duration":508,"startTime":"2022-06-13T16:46:54.402-05:00[America/Bogota]","result":"SUCCESS","precondition":false,"level":0,"lineNumber":33,"children":[{"number":6,"description":"Dado que ejecuto el servicio con o sin header y body\r\n| url | path | method |\r\n| nux | /api/users?delay\u003d-1 | get |","duration":496,"startTime":"2022-06-13T16:46:54.411-05:00[America/Bogota]","result":"SUCCESS","precondition":false,"level":1,"children":[{"number":7,"description":"GET https://reqres.in/api/users?delay\u003d-1\r","duration":0,"startTime":"2022-06-13T16:46:54.905-05:00[America/Bogota]","result":"SUCCESS","restQuery":{"method":"GET","path":"https://reqres.in/api/users?delay\u003d-1\r","content":"\r","contentType":"null","requestHeaders":"Accept\u003d*/*\r","requestCookies":"\r","responseHeaders":"Date: Mon, 13 Jun 2022 21:46:54 GMT\r\nContent-Type: application/json; charset\u003dutf-8\r\nTransfer-Encoding: chunked\r\nConnection: keep-alive\r\nX-Powered-By: Express\r\nAccess-Control-Allow-Origin: *\r\nEtag: W/\"3e4-2RLXvr5wTg9YQ6aH95CkYoFNuO8\"\r\nVia: 1.1 vegur\r\nCF-Cache-Status: DYNAMIC\r\nExpect-CT: max-age\u003d604800, report-uri\u003d\"https://report-uri.cloudflare.com/cdn-cgi/beacon/expect-ct\"\r\nReport-To: {\"endpoints\":[{\"url\":\"https:\\/\\/a.nel.cloudflare.com\\/report\\/v3?s\u003dsBPKfkuADgPJuFftbrfuR4j05ocHxHXA7wQVNBKmDc0zP5Bw9%2BfZ%2BD1IaNeMKoDt%2FyIaTGeKskQ62rhG8oBXBSIgvPip3F4OHtBQ7nxSzgtteYZhLe45EElAJg%3D%3D\"}],\"group\":\"cf-nel\",\"max_age\":604800}\r\nNEL: {\"success_fraction\":0,\"report_to\":\"cf-nel\",\"max_age\":604800}\r\nServer: cloudflare\r\nCF-RAY: 71ae05853f2b6dfe-LIM\r\nContent-Encoding: gzip\r","responseCookies":"\r","responseBody":"{\n    \"page\": 1,\n    \"per_page\": 6,\n    \"total\": 12,\n    \"total_pages\": 2,\n    \"data\": [\n        {\n            \"id\": 1,\n            \"email\": \"george.bluth@reqres.in\",\n            \"first_name\": \"George\",\n            \"last_name\": \"Bluth\",\n            \"avatar\": \"https://reqres.in/img/faces/1-image.jpg\"\n        },\n        {\n            \"id\": 2,\n            \"email\": \"janet.weaver@reqres.in\",\n            \"first_name\": \"Janet\",\n            \"last_name\": \"Weaver\",\n            \"avatar\": \"https://reqres.in/img/faces/2-image.jpg\"\n        },\n        {\n            \"id\": 3,\n            \"email\": \"emma.wong@reqres.in\",\n            \"first_name\": \"Emma\",\n            \"last_name\": \"Wong\",\n            \"avatar\": \"https://reqres.in/img/faces/3-image.jpg\"\n        },\n        {\n            \"id\": 4,\n            \"email\": \"eve.holt@reqres.in\",\n            \"first_name\": \"Eve\",\n            \"last_name\": \"Holt\",\n            \"avatar\": \"https://reqres.in/img/faces/4-image.jpg\"\n        },\n        {\n            \"id\": 5,\n            \"email\": \"charles.morris@reqres.in\",\n            \"first_name\": \"Charles\",\n            \"last_name\": \"Morris\",\n            \"avatar\": \"https://reqres.in/img/faces/5-image.jpg\"\n        },\n        {\n            \"id\": 6,\n            \"email\": \"tracey.ramos@reqres.in\",\n            \"first_name\": \"Tracey\",\n            \"last_name\": \"Ramos\",\n            \"avatar\": \"https://reqres.in/img/faces/6-image.jpg\"\n        }\n    ],\n    \"support\": {\n        \"url\": \"https://reqres.in/#support-heading\",\n        \"text\": \"To keep ReqRes free, contributions towards server costs are appreciated!\"\n    }\n}","statusCode":200},"precondition":false,"level":2}]},{"number":8,"description":"Entonces valido que el codigo de respuesta sea: \"200\"","duration":1,"startTime":"2022-06-13T16:46:54.908-05:00[America/Bogota]","result":"SUCCESS","precondition":false,"level":1}]},{"number":9,"description":"Example: {id\u003dasd, codigo\u003d200}","duration":522,"startTime":"2022-06-13T16:46:54.912-05:00[America/Bogota]","result":"SUCCESS","precondition":false,"level":0,"lineNumber":34,"children":[{"number":10,"description":"Dado que ejecuto el servicio con o sin header y body\r\n| url | path | method |\r\n| nux | /api/users?delay\u003dasd | get |","duration":510,"startTime":"2022-06-13T16:46:54.921-05:00[America/Bogota]","result":"SUCCESS","precondition":false,"level":1,"children":[{"number":11,"description":"GET https://reqres.in/api/users?delay\u003dasd\r","duration":0,"startTime":"2022-06-13T16:46:55.430-05:00[America/Bogota]","result":"SUCCESS","restQuery":{"method":"GET","path":"https://reqres.in/api/users?delay\u003dasd\r","content":"\r","contentType":"null","requestHeaders":"Accept\u003d*/*\r","requestCookies":"\r","responseHeaders":"Date: Mon, 13 Jun 2022 21:46:54 GMT\r\nContent-Type: application/json; charset\u003dutf-8\r\nTransfer-Encoding: chunked\r\nConnection: keep-alive\r\nX-Powered-By: Express\r\nAccess-Control-Allow-Origin: *\r\nEtag: W/\"3e4-2RLXvr5wTg9YQ6aH95CkYoFNuO8\"\r\nVia: 1.1 vegur\r\nCF-Cache-Status: DYNAMIC\r\nExpect-CT: max-age\u003d604800, report-uri\u003d\"https://report-uri.cloudflare.com/cdn-cgi/beacon/expect-ct\"\r\nReport-To: {\"endpoints\":[{\"url\":\"https:\\/\\/a.nel.cloudflare.com\\/report\\/v3?s\u003dxNZWHnBfvRx5tYM9a%2FYn64TKY8E%2FgQiV0gV0dghJcXvKl57T1aD86YITRP1lPLOTmeFebObVKB1DTAlFzJeAuONbaqn3poVXJTQjhFHYvYQ4eaFxv4yiOdZP8Q%3D%3D\"}],\"group\":\"cf-nel\",\"max_age\":604800}\r\nNEL: {\"success_fraction\":0,\"report_to\":\"cf-nel\",\"max_age\":604800}\r\nServer: cloudflare\r\nCF-RAY: 71ae05888d2a6e03-LIM\r\nContent-Encoding: gzip\r","responseCookies":"\r","responseBody":"{\n    \"page\": 1,\n    \"per_page\": 6,\n    \"total\": 12,\n    \"total_pages\": 2,\n    \"data\": [\n        {\n            \"id\": 1,\n            \"email\": \"george.bluth@reqres.in\",\n            \"first_name\": \"George\",\n            \"last_name\": \"Bluth\",\n            \"avatar\": \"https://reqres.in/img/faces/1-image.jpg\"\n        },\n        {\n            \"id\": 2,\n            \"email\": \"janet.weaver@reqres.in\",\n            \"first_name\": \"Janet\",\n            \"last_name\": \"Weaver\",\n            \"avatar\": \"https://reqres.in/img/faces/2-image.jpg\"\n        },\n        {\n            \"id\": 3,\n            \"email\": \"emma.wong@reqres.in\",\n            \"first_name\": \"Emma\",\n            \"last_name\": \"Wong\",\n            \"avatar\": \"https://reqres.in/img/faces/3-image.jpg\"\n        },\n        {\n            \"id\": 4,\n            \"email\": \"eve.holt@reqres.in\",\n            \"first_name\": \"Eve\",\n            \"last_name\": \"Holt\",\n            \"avatar\": \"https://reqres.in/img/faces/4-image.jpg\"\n        },\n        {\n            \"id\": 5,\n            \"email\": \"charles.morris@reqres.in\",\n            \"first_name\": \"Charles\",\n            \"last_name\": \"Morris\",\n            \"avatar\": \"https://reqres.in/img/faces/5-image.jpg\"\n        },\n        {\n            \"id\": 6,\n            \"email\": \"tracey.ramos@reqres.in\",\n            \"first_name\": \"Tracey\",\n            \"last_name\": \"Ramos\",\n            \"avatar\": \"https://reqres.in/img/faces/6-image.jpg\"\n        }\n    ],\n    \"support\": {\n        \"url\": \"https://reqres.in/#support-heading\",\n        \"text\": \"To keep ReqRes free, contributions towards server costs are appreciated!\"\n    }\n}","statusCode":200},"precondition":false,"level":2}]},{"number":12,"description":"Entonces valido que el codigo de respuesta sea: \"200\"","duration":1,"startTime":"2022-06-13T16:46:55.432-05:00[America/Bogota]","result":"SUCCESS","precondition":false,"level":1}]},{"number":13,"description":"Example: {id\u003d@, codigo\u003d200}","duration":551,"startTime":"2022-06-13T16:46:55.436-05:00[America/Bogota]","result":"SUCCESS","precondition":false,"level":0,"lineNumber":35,"children":[{"number":14,"description":"Dado que ejecuto el servicio con o sin header y body\r\n| url | path | method |\r\n| nux | /api/users?delay\u003d@ | get |","duration":540,"startTime":"2022-06-13T16:46:55.444-05:00[America/Bogota]","result":"SUCCESS","precondition":false,"level":1,"children":[{"number":15,"description":"GET https://reqres.in/api/users?delay\u003d%40\r","duration":0,"startTime":"2022-06-13T16:46:55.982-05:00[America/Bogota]","result":"SUCCESS","restQuery":{"method":"GET","path":"https://reqres.in/api/users?delay\u003d%40\r","content":"\r","contentType":"null","requestHeaders":"Accept\u003d*/*\r","requestCookies":"\r","responseHeaders":"Date: Mon, 13 Jun 2022 21:46:55 GMT\r\nContent-Type: application/json; charset\u003dutf-8\r\nTransfer-Encoding: chunked\r\nConnection: keep-alive\r\nX-Powered-By: Express\r\nAccess-Control-Allow-Origin: *\r\nEtag: W/\"3e4-2RLXvr5wTg9YQ6aH95CkYoFNuO8\"\r\nVia: 1.1 vegur\r\nCF-Cache-Status: DYNAMIC\r\nExpect-CT: max-age\u003d604800, report-uri\u003d\"https://report-uri.cloudflare.com/cdn-cgi/beacon/expect-ct\"\r\nReport-To: {\"endpoints\":[{\"url\":\"https:\\/\\/a.nel.cloudflare.com\\/report\\/v3?s\u003dlx6gkDAWwIU6odm%2Bxd%2BygsgDXtw14R0B9%2FlMqYvDv6TMobzzdV9xIl5u8knNdrd15WSpvvqhVmlmknC%2BBVJzq3Vn40sfFEJllKuNG8rbQFbkNCRRV5aVvy4L0A%3D%3D\"}],\"group\":\"cf-nel\",\"max_age\":604800}\r\nNEL: {\"success_fraction\":0,\"report_to\":\"cf-nel\",\"max_age\":604800}\r\nServer: cloudflare\r\nCF-RAY: 71ae058bca256e03-LIM\r\nContent-Encoding: gzip\r","responseCookies":"\r","responseBody":"{\n    \"page\": 1,\n    \"per_page\": 6,\n    \"total\": 12,\n    \"total_pages\": 2,\n    \"data\": [\n        {\n            \"id\": 1,\n            \"email\": \"george.bluth@reqres.in\",\n            \"first_name\": \"George\",\n            \"last_name\": \"Bluth\",\n            \"avatar\": \"https://reqres.in/img/faces/1-image.jpg\"\n        },\n        {\n            \"id\": 2,\n            \"email\": \"janet.weaver@reqres.in\",\n            \"first_name\": \"Janet\",\n            \"last_name\": \"Weaver\",\n            \"avatar\": \"https://reqres.in/img/faces/2-image.jpg\"\n        },\n        {\n            \"id\": 3,\n            \"email\": \"emma.wong@reqres.in\",\n            \"first_name\": \"Emma\",\n            \"last_name\": \"Wong\",\n            \"avatar\": \"https://reqres.in/img/faces/3-image.jpg\"\n        },\n        {\n            \"id\": 4,\n            \"email\": \"eve.holt@reqres.in\",\n            \"first_name\": \"Eve\",\n            \"last_name\": \"Holt\",\n            \"avatar\": \"https://reqres.in/img/faces/4-image.jpg\"\n        },\n        {\n            \"id\": 5,\n            \"email\": \"charles.morris@reqres.in\",\n            \"first_name\": \"Charles\",\n            \"last_name\": \"Morris\",\n            \"avatar\": \"https://reqres.in/img/faces/5-image.jpg\"\n        },\n        {\n            \"id\": 6,\n            \"email\": \"tracey.ramos@reqres.in\",\n            \"first_name\": \"Tracey\",\n            \"last_name\": \"Ramos\",\n            \"avatar\": \"https://reqres.in/img/faces/6-image.jpg\"\n        }\n    ],\n    \"support\": {\n        \"url\": \"https://reqres.in/#support-heading\",\n        \"text\": \"To keep ReqRes free, contributions towards server costs are appreciated!\"\n    }\n}","statusCode":200},"precondition":false,"level":2}]},{"number":16,"description":"Entonces valido que el codigo de respuesta sea: \"200\"","duration":1,"startTime":"2022-06-13T16:46:55.985-05:00[America/Bogota]","result":"SUCCESS","precondition":false,"level":1}]}],"userStory":{"id":"automatizacion-de-api-tarea","storyName":"Automatizacion de API TAREA","path":"src/test/resources/features/TareaAutomatizacionAPI.feature","narrative":"  Como un alumno de la escuela NTT Data de Testing\n  Quiero redactar y automatizar APIs\n  Para obtener valores y respuestas de la solicitudes enviadas\n  Esto me ayudará a tener posibilidades de ser parte de NTT Data","type":"feature"},"featureTag":{"name":"Features/Automatizacion de API TAREA","type":"feature","displayName":"Features/Automatizacion de API TAREA"},"title":"Retrasar respuesta del sistema en \u003cid\u003e segundos - No hace retraso 200","tags":[{"name":"Automatizacion de API TAREA","type":"feature","displayName":"Automatizacion de API TAREA"},{"name":"TareaDeAutomatizacionAPI","type":"tag","displayName":"TareaDeAutomatizacionAPI"},{"name":"RetrasarRespuesta_Negativo","type":"tag","displayName":"RetrasarRespuesta_Negativo"}],"startTime":"2022-06-13T16:46:53.590-05:00[America/Bogota]","duration":2398,"projectKey":"","isManualTestingUpToDate":false,"dataTable":{"headers":["id","codigo"],"rows":[{"values":["*","200"],"lineNumber":32,"result":"SUCCESS"},{"values":["-1","200"],"lineNumber":33,"result":"SUCCESS"},{"values":["asd","200"],"lineNumber":34,"result":"SUCCESS"},{"values":["@","200"],"lineNumber":35,"result":"SUCCESS"}],"predefinedRows":true,"scenarioOutline":"Dado que ejecuto el servicio con o sin header y body\n\rEntonces valido que el codigo de respuesta sea: \"\u003ccodigo\u003e\"\n\r","dataSetDescriptors":[{"startRow":0,"rowCount":0,"name":""}]},"manual":false,"testSource":"Cucumber","result":"SUCCESS","scenarioOutline":"Dado que ejecuto el servicio con o sin header y body\r\n|url | path | method|\r\n|nux | /api/users?delay\u003d\u003cid\u003e | get|\r\nEntonces valido que el codigo de respuesta sea: \"\u003ccodigo\u003e\""}